Youth Report: Coding & Visualizations Guidelines
…
Also creating a mock data table to use in examples later (No need to understand this code)

set.seed(26)
size = 500
mock_data <- tibble(
  id = 1:size,
  x_val = sample(c("x1", "x2", "x3", "x4"), size, replace = TRUE),
  two_types = sample(c("Type 1", "Type 2"), size, replace = TRUE),
  three_types = sample(c("Type 1", "Type 2", "Type 3"), size, replace = TRUE),
  four_types = sample(c("Type 1", "Type 2", "Type 3", "Type 4"), size, replace = TRUE),
  five_types = sample(c("Type 1", "Type 2", "Type 3", "Type 4", "Type 5"), size, replace = TRUE)
)
mock_data

# A tibble: 500 × 6
      id x_val two_types three_types four_types five_types
   <int> <chr> <chr>     <chr>       <chr>      <chr>     
 1     1 x4    Type 2    Type 3      Type 2     Type 2    
 2     2 x4    Type 1    Type 2      Type 3     Type 4    
 3     3 x3    Type 2    Type 3      Type 2     Type 1    
 4     4 x4    Type 2    Type 1      Type 1     Type 5    
 5     5 x4    Type 1    Type 1      Type 1     Type 4    
 6     6 x3    Type 2    Type 3      Type 2     Type 4    
 7     7 x3    Type 1    Type 2      Type 4     Type 1    
 8     8 x1    Type 1    Type 3      Type 4     Type 2    
 9     9 x3    Type 1    Type 1      Type 1     Type 2    
10    10 x2    Type 1    Type 3      Type 4     Type 5    
# ℹ 490 more rows
…
